EESchema Schematic File Version 4
LIBS:HeManTCN-cache
EELAYER 26 0
EELAYER END
$Descr A4 11693 8268
encoding utf-8
Sheet 3 11
Title "SnifferTCN"
Date "2019-09-25"
Rev "Rev 0.1"
Comp "Gustavo F. Paredes Delaloye"
Comment1 "Tesis para CESE 7ma Cohorte."
Comment2 ""
Comment3 ""
Comment4 ""
$EndDescr
$Comp
L power:+3.3V #PWR?
U 1 1 5DA2D2D8
P 4800 1500
F 0 "#PWR?" H 4800 1350 50  0001 C CNN
F 1 "+3.3V" V 4800 1750 50  0000 C CNN
F 2 "" H 4800 1500 50  0001 C CNN
F 3 "" H 4800 1500 50  0001 C CNN
	1    4800 1500
	0    1    1    0   
$EndComp
$Comp
L power:GND #PWR?
U 1 1 5DA2D2DE
P 4750 7000
F 0 "#PWR?" H 4750 6750 50  0001 C CNN
F 1 "GND" H 4755 6827 50  0000 C CNN
F 2 "" H 4750 7000 50  0001 C CNN
F 3 "" H 4750 7000 50  0001 C CNN
	1    4750 7000
	1    0    0    -1  
$EndComp
$Comp
L Device:C_Small C?
U 1 1 5DA2D2E5
P 3250 2650
F 0 "C?" H 3342 2696 50  0000 L CNN
F 1 "0.1u" H 3342 2605 50  0000 L CNN
F 2 "Capacitor_SMD:C_0805_2012Metric" H 3250 2650 50  0001 C CNN
F 3 "~" H 3250 2650 50  0001 C CNN
F 4 "885012207098" H 950 1650 50  0001 C CNN "manf#"
	1    3250 2650
	1    0    0    -1  
$EndComp
$Comp
L Device:C_Small C?
U 1 1 5DA2D2ED
P 4150 1250
F 0 "C?" H 4242 1296 50  0000 L CNN
F 1 "0.1u" H 4242 1205 50  0000 L CNN
F 2 "Capacitor_SMD:C_0805_2012Metric" H 4150 1250 50  0001 C CNN
F 3 "~" H 4150 1250 50  0001 C CNN
F 4 "885012207098" H 1550 250 50  0001 C CNN "manf#"
	1    4150 1250
	1    0    0    -1  
$EndComp
$Comp
L Device:C_Small C?
U 1 1 5DA2D2F5
P 4450 1250
F 0 "C?" H 4542 1296 50  0000 L CNN
F 1 "0.1u" H 4542 1205 50  0000 L CNN
F 2 "Capacitor_SMD:C_0805_2012Metric" H 4450 1250 50  0001 C CNN
F 3 "~" H 4450 1250 50  0001 C CNN
F 4 "885012207098" H 1550 250 50  0001 C CNN "manf#"
	1    4450 1250
	1    0    0    -1  
$EndComp
$Comp
L Device:C_Small C?
U 1 1 5DA2D2FD
P 4750 1250
F 0 "C?" H 4842 1296 50  0000 L CNN
F 1 "0.1u" H 4842 1205 50  0000 L CNN
F 2 "Capacitor_SMD:C_0805_2012Metric" H 4750 1250 50  0001 C CNN
F 3 "~" H 4750 1250 50  0001 C CNN
F 4 "885012207098" H 1550 250 50  0001 C CNN "manf#"
	1    4750 1250
	1    0    0    -1  
$EndComp
$Comp
L Device:C_Small C?
U 1 1 5DA2D305
P 5050 1250
F 0 "C?" H 5142 1296 50  0000 L CNN
F 1 "0.1u" H 5142 1205 50  0000 L CNN
F 2 "Capacitor_SMD:C_0805_2012Metric" H 5050 1250 50  0001 C CNN
F 3 "~" H 5050 1250 50  0001 C CNN
F 4 "885012207098" H 1550 250 50  0001 C CNN "manf#"
	1    5050 1250
	1    0    0    -1  
$EndComp
$Comp
L Device:C_Small C?
U 1 1 5DA2D30D
P 5350 1250
F 0 "C?" H 5442 1296 50  0000 L CNN
F 1 "0.1u" H 5442 1205 50  0000 L CNN
F 2 "Capacitor_SMD:C_0805_2012Metric" H 5350 1250 50  0001 C CNN
F 3 "~" H 5350 1250 50  0001 C CNN
F 4 "885012207098" H 1550 250 50  0001 C CNN "manf#"
	1    5350 1250
	1    0    0    -1  
$EndComp
$Comp
L Device:C_Small C?
U 1 1 5DA2D315
P 3500 1250
F 0 "C?" H 3592 1296 50  0000 L CNN
F 1 "4.7u" H 3592 1205 50  0000 L CNN
F 2 "Capacitor_SMD:C_0805_2012Metric" H 3500 1250 50  0001 C CNN
F 3 "~" H 3500 1250 50  0001 C CNN
F 4 "LMK212B7475MG-T" H 1550 250 50  0001 C CNN "manf#"
	1    3500 1250
	1    0    0    -1  
$EndComp
Connection ~ 4150 1150
Wire Wire Line
	4150 1150 4450 1150
Connection ~ 4450 1150
Wire Wire Line
	4450 1150 4750 1150
Connection ~ 4750 1150
Wire Wire Line
	4750 1150 5050 1150
Connection ~ 5050 1150
Wire Wire Line
	5050 1150 5350 1150
Wire Wire Line
	5350 1350 5050 1350
Connection ~ 3500 1350
Wire Wire Line
	3500 1350 3400 1350
Connection ~ 4150 1350
Connection ~ 4450 1350
Wire Wire Line
	4450 1350 4150 1350
Connection ~ 4750 1350
Wire Wire Line
	4750 1350 4450 1350
Connection ~ 5050 1350
Wire Wire Line
	5050 1350 4750 1350
Wire Wire Line
	3500 1150 3400 1150
Connection ~ 3500 1150
$Comp
L power:+3.3V #PWR?
U 1 1 5DA2D330
P 3400 1150
F 0 "#PWR?" H 3400 1000 50  0001 C CNN
F 1 "+3.3V" V 3415 1278 50  0000 L CNN
F 2 "" H 3400 1150 50  0001 C CNN
F 3 "" H 3400 1150 50  0001 C CNN
	1    3400 1150
	0    -1   -1   0   
$EndComp
$Comp
L power:GND #PWR?
U 1 1 5DA2D336
P 2650 4950
F 0 "#PWR?" H 2650 4700 50  0001 C CNN
F 1 "GND" V 2655 4822 50  0000 R CNN
F 2 "" H 2650 4950 50  0001 C CNN
F 3 "" H 2650 4950 50  0001 C CNN
	1    2650 4950
	0    1    1    0   
$EndComp
$Comp
L Device:C_Small C?
U 1 1 5DA2D33D
P 2650 4850
F 0 "C?" H 2742 4896 50  0000 L CNN
F 1 "0.1u" H 2742 4805 50  0000 L CNN
F 2 "Capacitor_SMD:C_0805_2012Metric" H 2650 4850 50  0001 C CNN
F 3 "~" H 2650 4850 50  0001 C CNN
F 4 "885012207098" H 950 2450 50  0001 C CNN "manf#"
	1    2650 4850
	1    0    0    -1  
$EndComp
$Comp
L Device:C_Small C?
U 1 1 5DA2D345
P 2800 2650
F 0 "C?" H 2892 2696 50  0000 L CNN
F 1 "0.1u" H 2892 2605 50  0000 L CNN
F 2 "Capacitor_SMD:C_0805_2012Metric" H 2800 2650 50  0001 C CNN
F 3 "~" H 2800 2650 50  0001 C CNN
F 4 "885012207098" H 1550 250 50  0001 C CNN "manf#"
	1    2800 2650
	1    0    0    -1  
$EndComp
$Comp
L Device:C_Small C?
U 1 1 5DA2D34D
P 2450 2650
F 0 "C?" H 2542 2696 50  0000 L CNN
F 1 "0.1u" H 2542 2605 50  0000 L CNN
F 2 "Capacitor_SMD:C_0805_2012Metric" H 2450 2650 50  0001 C CNN
F 3 "~" H 2450 2650 50  0001 C CNN
F 4 "885012207098" H 1550 250 50  0001 C CNN "manf#"
	1    2450 2650
	1    0    0    -1  
$EndComp
Wire Wire Line
	3450 2300 2800 2300
Wire Wire Line
	2800 2300 2800 2550
Wire Wire Line
	3450 2200 2450 2200
Wire Wire Line
	2450 2200 2450 2550
Wire Wire Line
	2450 2750 2800 2750
Connection ~ 2800 2750
Connection ~ 2450 2750
$Comp
L power:GND #PWR?
U 1 1 5DA2D35B
P 2450 2750
F 0 "#PWR?" H 2450 2500 50  0001 C CNN
F 1 "GND" V 2455 2622 50  0000 R CNN
F 2 "" H 2450 2750 50  0001 C CNN
F 3 "" H 2450 2750 50  0001 C CNN
	1    2450 2750
	1    0    0    -1  
$EndComp
$Comp
L power:+3.3V #PWR?
U 1 1 5DA2D361
P 3250 2400
F 0 "#PWR?" H 3250 2250 50  0001 C CNN
F 1 "+3.3V" V 3265 2528 50  0000 L CNN
F 2 "" H 3250 2400 50  0001 C CNN
F 3 "" H 3250 2400 50  0001 C CNN
	1    3250 2400
	0    -1   -1   0   
$EndComp
Wire Wire Line
	3250 2550 3250 2400
Wire Wire Line
	3250 2400 3450 2400
Connection ~ 3250 2400
Wire Wire Line
	2800 2750 3250 2750
$Comp
L Device:C_Small C?
U 1 1 5DA2D36C
P 2550 1800
F 0 "C?" V 2321 1800 50  0000 C CNN
F 1 "0.1u" V 2412 1800 50  0000 C CNN
F 2 "Capacitor_SMD:C_0805_2012Metric" H 2550 1800 50  0001 C CNN
F 3 "~" H 2550 1800 50  0001 C CNN
F 4 "885012207098" H 1550 250 50  0001 C CNN "manf#"
	1    2550 1800
	0    1    1    0   
$EndComp
$Comp
L Device:R_Small R?
U 1 1 5DA2D374
P 2750 1650
F 0 "R?" H 2809 1696 50  0000 L CNN
F 1 "4K7" H 2809 1605 50  0000 L CNN
F 2 "Resistor_SMD:R_0805_2012Metric" H 2750 1650 50  0001 C CNN
F 3 "~" H 2750 1650 50  0001 C CNN
F 4 "RC0805JR-074K7L" H 1550 250 50  0001 C CNN "manf#"
	1    2750 1650
	1    0    0    -1  
$EndComp
$Comp
L Device:R_Small R?
U 1 1 5DA2D37C
P 3050 1650
F 0 "R?" H 3109 1696 50  0000 L CNN
F 1 "4K7" H 3109 1605 50  0000 L CNN
F 2 "Resistor_SMD:R_0805_2012Metric" H 3050 1650 50  0001 C CNN
F 3 "~" H 3050 1650 50  0001 C CNN
F 4 "RC0805JR-074K7L" H 1550 250 50  0001 C CNN "manf#"
	1    3050 1650
	1    0    0    -1  
$EndComp
Wire Wire Line
	2650 1800 2750 1800
Wire Wire Line
	2750 1750 2750 1800
Connection ~ 2750 1800
Wire Wire Line
	2750 1800 3450 1800
Wire Wire Line
	3050 1750 3050 2000
Wire Wire Line
	3050 2000 3450 2000
$Comp
L Device:Jumper_NC_Small JP?
U 1 1 5DA2D389
P 2750 2000
F 0 "JP?" H 2900 2050 50  0000 C CNN
F 1 "BOOT" H 2950 1950 50  0000 C CNN
F 2 "Connector_PinHeader_2.54mm:PinHeader_1x02_P2.54mm_Horizontal" H 2750 2000 50  0001 C CNN
F 3 "~" H 2750 2000 50  0001 C CNN
	1    2750 2000
	1    0    0    -1  
$EndComp
$Comp
L power:GND #PWR?
U 1 1 5DA2D390
P 2450 1800
F 0 "#PWR?" H 2450 1550 50  0001 C CNN
F 1 "GND" V 2455 1672 50  0000 R CNN
F 2 "" H 2450 1800 50  0001 C CNN
F 3 "" H 2450 1800 50  0001 C CNN
	1    2450 1800
	0    1    1    0   
$EndComp
$Comp
L Device:Crystal_Small Y?
U 1 1 5DA2D397
P 3000 3250
F 0 "Y?" V 3046 3162 50  0000 R CNN
F 1 "8MHz" V 2955 3162 50  0000 R CNN
F 2 "Crystal:Crystal_SMD_5032-2Pin_5.0x3.2mm" H 3000 3250 50  0001 C CNN
F 3 "~" H 3000 3250 50  0001 C CNN
F 4 "NX5032GA-8MHZ-EXS00A-CG07039" H 1550 250 50  0001 C CNN "manf#"
	1    3000 3250
	0    -1   -1   0   
$EndComp
$Comp
L Device:C_Small C?
U 1 1 5DA2D39F
P 2750 3350
F 0 "C?" V 2850 3450 50  0000 C CNN
F 1 "18p" V 2850 3200 50  0000 C CNN
F 2 "Capacitor_SMD:C_0805_2012Metric" H 2750 3350 50  0001 C CNN
F 3 "~" H 2750 3350 50  0001 C CNN
F 4 "CL21C180JBANNNC" H 1550 250 50  0001 C CNN "manf#"
	1    2750 3350
	0    1    1    0   
$EndComp
$Comp
L Device:C_Small C?
U 1 1 5DA2D3A7
P 2750 3150
F 0 "C?" V 2650 3250 50  0000 C CNN
F 1 "18p" V 2650 3000 50  0000 C CNN
F 2 "Capacitor_SMD:C_0805_2012Metric" H 2750 3150 50  0001 C CNN
F 3 "~" H 2750 3150 50  0001 C CNN
F 4 "CL21C180JBANNNC" H 1550 250 50  0001 C CNN "manf#"
	1    2750 3150
	0    1    1    0   
$EndComp
Wire Wire Line
	2850 3150 3000 3150
Wire Wire Line
	3450 3150 3450 3200
Connection ~ 3000 3150
Wire Wire Line
	3000 3150 3450 3150
Wire Wire Line
	3450 3300 3450 3350
Wire Wire Line
	3450 3350 3000 3350
Connection ~ 3000 3350
Wire Wire Line
	3000 3350 2850 3350
$Comp
L power:GND #PWR?
U 1 1 5DA2D3B6
P 2650 3250
F 0 "#PWR?" H 2650 3000 50  0001 C CNN
F 1 "GND" V 2655 3122 50  0000 R CNN
F 2 "" H 2650 3250 50  0001 C CNN
F 3 "" H 2650 3250 50  0001 C CNN
	1    2650 3250
	0    1    1    0   
$EndComp
$Comp
L Device:Crystal_Small Y?
U 1 1 5DA2D3BD
P 5350 6750
F 0 "Y?" H 5400 6850 50  0000 R CNN
F 1 "32.768KHz" H 5200 6750 50  0000 R CNN
F 2 "Crystal:Crystal_SMD_MicroCrystal_CC7V-T1A-2Pin_3.2x1.5mm" H 5350 6750 50  0001 C CNN
F 3 "~" H 5350 6750 50  0001 C CNN
F 4 "FC-135 32.7680KA-A5" H 1550 250 50  0001 C CNN "manf#"
	1    5350 6750
	-1   0    0    -1  
$EndComp
$Comp
L Device:C_Small C?
U 1 1 5DA2D3C5
P 5250 6900
F 0 "C?" H 5400 6950 50  0000 C CNN
F 1 "10p" H 5400 6850 50  0000 C CNN
F 2 "Capacitor_SMD:C_0805_2012Metric" H 5250 6900 50  0001 C CNN
F 3 "~" H 5250 6900 50  0001 C CNN
F 4 "885012007010" H 1550 250 50  0001 C CNN "manf#"
	1    5250 6900
	-1   0    0    -1  
$EndComp
$Comp
L Device:C_Small C?
U 1 1 5DA2D3CD
P 5450 6900
F 0 "C?" H 5300 6950 50  0000 C CNN
F 1 "10p" H 5300 6850 50  0000 C CNN
F 2 "Capacitor_SMD:C_0805_2012Metric" H 5450 6900 50  0001 C CNN
F 3 "~" H 5450 6900 50  0001 C CNN
F 4 "885012007010" H 1550 250 50  0001 C CNN "manf#"
	1    5450 6900
	-1   0    0    -1  
$EndComp
$Comp
L power:GND #PWR?
U 1 1 5DA2D3D4
P 5350 7000
F 0 "#PWR?" H 5350 6750 50  0001 C CNN
F 1 "GND" H 5450 6850 50  0000 R CNN
F 2 "" H 5350 7000 50  0001 C CNN
F 3 "" H 5350 7000 50  0001 C CNN
	1    5350 7000
	-1   0    0    -1  
$EndComp
Text Label 5250 4900 0    50   ~ 0
USBH_D-
Text Label 5250 5000 0    50   ~ 0
USBH_D+
Text Label 5250 2900 0    50   ~ 0
USBD_D-
Text Label 5250 3000 0    50   ~ 0
USBD_D+
Text Label 5250 5300 0    50   ~ 0
ENET_MDC
Text Label 5250 1900 0    50   ~ 0
ENET_REF_CLK
Text Label 5250 2000 0    50   ~ 0
ENET_MDIO
Text Label 5250 2500 0    50   ~ 0
ENET_CRS_DV
Text Label 5250 5600 0    50   ~ 0
ENET_RXD0
Text Label 5250 5700 0    50   ~ 0
ENET_RXD1
Text Label 5250 4600 0    50   ~ 0
ENET_TXEN
Text Label 5250 4700 0    50   ~ 0
ENET_TXD0
Text Label 5250 4800 0    50   ~ 0
ENET_TXD1
Wire Wire Line
	2650 3150 2650 3250
Connection ~ 2650 3250
Wire Wire Line
	2650 3250 2650 3350
Wire Wire Line
	5250 6600 5450 6600
Wire Wire Line
	5250 7000 5350 7000
Connection ~ 5350 7000
Wire Wire Line
	5350 7000 5450 7000
Wire Wire Line
	5450 6750 5450 6800
Wire Wire Line
	5250 6800 5250 6750
Wire Wire Line
	5250 6700 5250 6750
Connection ~ 5250 6750
Wire Wire Line
	5450 6600 5450 6750
Connection ~ 5450 6750
Text Label 5250 6000 0    50   ~ 0
SDMMC_D0
Text Label 5250 6400 0    50   ~ 0
SDMMC_CLK
Text Label 3450 5400 2    50   ~ 0
SDMMC_CMD
Text Label 3450 5300 2    50   ~ 0
CAN_TX
Text Label 3450 5200 2    50   ~ 0
CAN_RX
Text Label 3450 3600 2    50   ~ 0
RS485_TX
Text Label 3450 3500 2    50   ~ 0
RS485_RX
Text Label 5250 6300 0    50   ~ 0
~QSPI_CS
Text Label 3450 1800 2    50   ~ 0
~RESET
Text Label 3450 2000 2    50   ~ 0
~BOOT
Text Label 3450 4200 2    50   ~ 0
QSPI_IO0
Text Label 3450 4300 2    50   ~ 0
QSPI_IO1
Text Label 3450 4400 2    50   ~ 0
QSPI_IO2
Text Label 3450 4500 2    50   ~ 0
QSPI_IO3
Text Label 5250 3700 0    50   ~ 0
QSPI_SCK
Text Label 5250 2700 0    50   ~ 0
U1_TX
Text Label 5250 2800 0    50   ~ 0
U1_RX
Text Label 5250 3200 0    50   ~ 0
SWCLK
Text Label 5250 3100 0    50   ~ 0
SWDIO
Text Label 5250 4400 0    50   ~ 0
RS485_DE
Text Label 3450 5500 2    50   ~ 0
PD3
Text Label 3450 5600 2    50   ~ 0
PD4
Text Label 3450 5700 2    50   ~ 0
PD5
Text Label 3450 5800 2    50   ~ 0
PD6
Text Label 3450 5900 2    50   ~ 0
PD7
Text Label 3450 6000 2    50   ~ 0
PD8
Text Label 3450 6100 2    50   ~ 0
PD9
Text Label 3450 6200 2    50   ~ 0
PD10
Text Label 3450 6300 2    50   ~ 0
PD11
Text Label 3450 6400 2    50   ~ 0
PD12
Text Label 3450 6500 2    50   ~ 0
PD13
Text Label 3450 6600 2    50   ~ 0
PD14
Text Label 3450 6700 2    50   ~ 0
PD15
Text Label 3450 3700 2    50   ~ 0
PE2
Text Label 3450 3800 2    50   ~ 0
PE3
Text Label 3450 3900 2    50   ~ 0
PE4
Text Label 3450 4000 2    50   ~ 0
PE5
Text Label 3450 4100 2    50   ~ 0
PE6
Text Label 3450 4600 2    50   ~ 0
PE11
Text Label 3450 4700 2    50   ~ 0
PE12
Text Label 3450 4800 2    50   ~ 0
PE13
Text Label 3450 4900 2    50   ~ 0
PE14
Text Label 3450 5000 2    50   ~ 0
PE15
Text Label 5250 3500 0    50   ~ 0
PB0
Text Label 5250 3600 0    50   ~ 0
PB1
Text Label 5250 3800 0    50   ~ 0
PB3
Text Label 5250 3900 0    50   ~ 0
PB4
Text Label 5250 4000 0    50   ~ 0
PB5
Text Label 5250 4100 0    50   ~ 0
PB6
Text Label 5250 4200 0    50   ~ 0
PB7
Text Label 5250 4300 0    50   ~ 0
PB8
Text Label 5250 4500 0    50   ~ 0
PB10
Text Label 5250 1800 0    50   ~ 0
PA0
Text Label 5250 2100 0    50   ~ 0
PA3
Text Label 5250 2200 0    50   ~ 0
PA4
Text Label 5250 2300 0    50   ~ 0
PA5
Text Label 5250 2400 0    50   ~ 0
PA6
Text Label 5250 2600 0    50   ~ 0
PA8
Text Label 5250 3300 0    50   ~ 0
PA15
Text Label 5250 5200 0    50   ~ 0
PC0
Text Label 5250 5400 0    50   ~ 0
PC2
Text Label 5250 5500 0    50   ~ 0
PC3
Text Label 5250 5800 0    50   ~ 0
PC6
Text Label 5250 5900 0    50   ~ 0
PC7
Text Label 5250 6100 0    50   ~ 0
PC9
Text Label 5250 6200 0    50   ~ 0
PC10
Text Label 5250 6500 0    50   ~ 0
PC13
Wire Wire Line
	4550 7000 4750 7000
Connection ~ 4550 7000
Wire Wire Line
	4450 7000 4550 7000
Connection ~ 4450 7000
Wire Wire Line
	4350 7000 4450 7000
Connection ~ 4350 7000
Wire Wire Line
	4250 7000 4350 7000
Connection ~ 4250 7000
Wire Wire Line
	4150 7000 4250 7000
Wire Wire Line
	4050 7000 4150 7000
Connection ~ 4150 7000
Wire Wire Line
	4650 1500 4800 1500
Connection ~ 4650 1500
Connection ~ 4450 1500
Wire Wire Line
	4350 1500 4450 1500
Connection ~ 4350 1500
Wire Wire Line
	4250 1500 4350 1500
Connection ~ 4250 1500
Wire Wire Line
	4150 1500 4250 1500
Wire Wire Line
	4550 1500 4650 1500
Wire Wire Line
	4450 1500 4550 1500
Connection ~ 4550 1500
$Comp
L MCU_ST_STM32H7:STM32H743VITx U?
U 1 1 5DA2D44E
P 4350 4200
F 0 "U?" H 4350 1314 50  0000 C CNN
F 1 "STM32H743VITx" H 4350 1223 50  0000 C CNN
F 2 "Package_QFP:LQFP-100_14x14mm_P0.5mm" H 3650 1600 50  0001 R CNN
F 3 "http://www.st.com/st-web-ui/static/active/en/resource/technical/document/datasheet/DM00387108.pdf" H 4350 4200 50  0001 C CNN
F 4 "STM32H743VIT6" H 1550 250 50  0001 C CNN "manf#"
	1    4350 4200
	1    0    0    -1  
$EndComp
Wire Wire Line
	4150 1450 4150 1500
Connection ~ 4150 1500
Wire Wire Line
	4050 1500 3900 1500
Wire Wire Line
	3900 1500 3900 1600
$Comp
L power:+BATT #PWR?
U 1 1 5DA2D459
P 3600 1600
F 0 "#PWR?" H 3600 1450 50  0001 C CNN
F 1 "+BATT" V 3615 1727 50  0000 L CNN
F 2 "" H 3600 1600 50  0001 C CNN
F 3 "" H 3600 1600 50  0001 C CNN
	1    3600 1600
	0    -1   -1   0   
$EndComp
Wire Wire Line
	3600 1600 3900 1600
Wire Wire Line
	3500 1350 4150 1350
Wire Wire Line
	3500 1150 4150 1150
$Comp
L power:+BATT #PWR?
U 1 1 5DA2D462
P 2650 4750
F 0 "#PWR?" H 2650 4600 50  0001 C CNN
F 1 "+BATT" V 2665 4877 50  0000 L CNN
F 2 "" H 2650 4750 50  0001 C CNN
F 3 "" H 2650 4750 50  0001 C CNN
	1    2650 4750
	0    -1   -1   0   
$EndComp
$Comp
L power:GND #PWR?
U 1 1 5DA2D468
P 3400 1350
F 0 "#PWR?" H 3400 1100 50  0001 C CNN
F 1 "GND" V 3405 1222 50  0000 R CNN
F 2 "" H 3400 1350 50  0001 C CNN
F 3 "" H 3400 1350 50  0001 C CNN
	1    3400 1350
	0    1    1    0   
$EndComp
Connection ~ 2650 4750
Wire Wire Line
	2650 4550 2650 4750
$Comp
L Jumper:Jumper_2_Bridged JP?
U 1 1 5DA2D470
P 2650 4350
F 0 "JP?" V 2600 4300 50  0000 R CNN
F 1 "Jumper_2_Bridged" H 3000 4450 50  0000 R CNN
F 2 "Jumper:SolderJumper-2_P1.3mm_Bridged_RoundedPad1.0x1.5mm" H 2650 4350 50  0001 C CNN
F 3 "~" H 2650 4350 50  0001 C CNN
	1    2650 4350
	0    -1   -1   0   
$EndComp
$Comp
L Connector:Conn_01x01_Female J?
U 1 1 5DA2D477
P 2850 4750
F 0 "J?" H 2878 4776 50  0000 L CNN
F 1 "VBAT+" H 2878 4685 50  0000 L CNN
F 2 "TestPoint:TestPoint_Loop_D1.80mm_Drill1.0mm_Beaded" H 2850 4750 50  0001 C CNN
F 3 "~" H 2850 4750 50  0001 C CNN
	1    2850 4750
	1    0    0    -1  
$EndComp
$Comp
L Connector:Conn_01x01_Female J?
U 1 1 5DA2D47E
P 2700 5150
F 0 "J?" H 2728 5176 50  0000 L CNN
F 1 "VBATG" H 2728 5085 50  0000 L CNN
F 2 "TestPoint:TestPoint_Loop_D1.80mm_Drill1.0mm_Beaded" H 2700 5150 50  0001 C CNN
F 3 "~" H 2700 5150 50  0001 C CNN
	1    2700 5150
	1    0    0    -1  
$EndComp
$Comp
L power:GND #PWR?
U 1 1 5DA2D485
P 2500 5150
F 0 "#PWR?" H 2500 4900 50  0001 C CNN
F 1 "GND" V 2505 5022 50  0000 R CNN
F 2 "" H 2500 5150 50  0001 C CNN
F 3 "" H 2500 5150 50  0001 C CNN
	1    2500 5150
	0    1    1    0   
$EndComp
$Comp
L power:+3.3V #PWR?
U 1 1 5DA2D48B
P 2650 4150
F 0 "#PWR?" H 2650 4000 50  0001 C CNN
F 1 "+3.3V" V 2665 4278 50  0000 L CNN
F 2 "" H 2650 4150 50  0001 C CNN
F 3 "" H 2650 4150 50  0001 C CNN
	1    2650 4150
	1    0    0    -1  
$EndComp
$Comp
L power:+3.3V #PWR?
U 1 1 5DA2D491
P 2650 2000
F 0 "#PWR?" H 2650 1850 50  0001 C CNN
F 1 "+3.3V" V 2665 2128 50  0000 L CNN
F 2 "" H 2650 2000 50  0001 C CNN
F 3 "" H 2650 2000 50  0001 C CNN
	1    2650 2000
	0    -1   -1   0   
$EndComp
Wire Wire Line
	2750 1450 2750 1550
Wire Wire Line
	2750 1450 4150 1450
Wire Wire Line
	2850 2000 3050 2000
Connection ~ 3050 2000
$Comp
L power:GND #PWR?
U 1 1 5DA2D49B
P 3050 1350
F 0 "#PWR?" H 3050 1100 50  0001 C CNN
F 1 "GND" V 3055 1222 50  0000 R CNN
F 2 "" H 3050 1350 50  0001 C CNN
F 3 "" H 3050 1350 50  0001 C CNN
	1    3050 1350
	0    1    1    0   
$EndComp
Wire Wire Line
	3050 1350 3050 1550
$EndSCHEMATC
