EESchema Schematic File Version 4
LIBS:HeManTCN-cache
EELAYER 26 0
EELAYER END
$Descr A4 11693 8268
encoding utf-8
Sheet 7 11
Title "SnifferTCN"
Date "2019-09-25"
Rev "Rev 0.1"
Comp "Gustavo F. Paredes Delaloye"
Comment1 "Tesis para CESE 7ma Cohorte."
Comment2 ""
Comment3 ""
Comment4 ""
$EndDescr
$Comp
L Interface_Ethernet:KSZ8081RNA U?
U 1 1 5DA5A9DB
P 4350 3500
F 0 "U?" H 3800 4550 50  0000 C CNN
F 1 "KSZ8081RNA" H 4800 4550 50  0000 C CNN
F 2 "Package_DFN_QFN:QFN-24-1EP_4x4mm_P0.5mm_EP2.6x2.6mm" H 5750 2500 50  0001 C CNN
F 3 "http://ww1.microchip.com/downloads/en/DeviceDoc/00002199A.pdf" H 2100 3700 50  0001 C CNN
F 4 "KSZ8081RNA" H -1900 -5800 50  0001 C CNN "manf#"
	1    4350 3500
	1    0    0    -1  
$EndComp
$Comp
L power:GND #PWR?
U 1 1 5DA5A9E2
P 4350 4500
F 0 "#PWR?" H 4350 4250 50  0001 C CNN
F 1 "GND" V 4355 4372 50  0000 R CNN
F 2 "" H 4350 4500 50  0001 C CNN
F 3 "" H 4350 4500 50  0001 C CNN
	1    4350 4500
	-1   0    0    -1  
$EndComp
Wire Wire Line
	4350 2400 4450 2400
Wire Wire Line
	4450 2400 4450 2150
Connection ~ 4450 2400
Wire Wire Line
	4250 2400 4250 2150
$Comp
L Device:C_Small C?
U 1 1 5DA5A9ED
P 3650 2250
F 0 "C?" H 3742 2296 50  0000 L CNN
F 1 "2.2u" H 3742 2205 50  0000 L CNN
F 2 "Capacitor_SMD:C_0805_2012Metric" H 3650 2250 50  0001 C CNN
F 3 "~" H 3650 2250 50  0001 C CNN
F 4 "CL21B225KPFNNNE" H -1900 -5800 50  0001 C CNN "manf#"
	1    3650 2250
	1    0    0    -1  
$EndComp
$Comp
L Device:C_Small C?
U 1 1 5DA5A9F5
P 3950 2250
F 0 "C?" H 4042 2296 50  0000 L CNN
F 1 "4.7u" H 4042 2205 50  0000 L CNN
F 2 "Capacitor_SMD:C_0805_2012Metric" H 3950 2250 50  0001 C CNN
F 3 "~" H 3950 2250 50  0001 C CNN
F 4 "LMK212B7475MG-T" H -1900 -5800 50  0001 C CNN "manf#"
	1    3950 2250
	1    0    0    -1  
$EndComp
Wire Wire Line
	4250 2150 3950 2150
Connection ~ 3950 2150
Wire Wire Line
	3950 2150 3650 2150
Wire Wire Line
	3950 2350 3650 2350
Connection ~ 3650 2350
Wire Wire Line
	3650 2350 3550 2350
$Comp
L power:GND #PWR?
U 1 1 5DA5AA02
P 3550 2350
F 0 "#PWR?" H 3550 2100 50  0001 C CNN
F 1 "GND" V 3555 2222 50  0000 R CNN
F 2 "" H 3550 2350 50  0001 C CNN
F 3 "" H 3550 2350 50  0001 C CNN
	1    3550 2350
	0    1    -1   0   
$EndComp
$Comp
L Device:C_Small C?
U 1 1 5DA5AA09
P 4550 2250
F 0 "C?" H 4642 2296 50  0000 L CNN
F 1 "4.7u" H 4642 2205 50  0000 L CNN
F 2 "Capacitor_SMD:C_0805_2012Metric" H 4550 2250 50  0001 C CNN
F 3 "~" H 4550 2250 50  0001 C CNN
F 4 "LMK212B7475MG-T" H -1900 -5800 50  0001 C CNN "manf#"
	1    4550 2250
	1    0    0    -1  
$EndComp
$Comp
L Device:C_Small C?
U 1 1 5DA5AA11
P 4850 2250
F 0 "C?" H 4942 2296 50  0000 L CNN
F 1 "0.1u" H 4942 2205 50  0000 L CNN
F 2 "Capacitor_SMD:C_0805_2012Metric" H 4850 2250 50  0001 C CNN
F 3 "~" H 4850 2250 50  0001 C CNN
F 4 "885012207098" H -1900 -5800 50  0001 C CNN "manf#"
	1    4850 2250
	1    0    0    -1  
$EndComp
$Comp
L Device:C_Small C?
U 1 1 5DA5AA19
P 5150 2250
F 0 "C?" H 5242 2296 50  0000 L CNN
F 1 "0.1u" H 5242 2205 50  0000 L CNN
F 2 "Capacitor_SMD:C_0805_2012Metric" H 5150 2250 50  0001 C CNN
F 3 "~" H 5150 2250 50  0001 C CNN
F 4 "885012207098" H -1900 -5800 50  0001 C CNN "manf#"
	1    5150 2250
	1    0    0    -1  
$EndComp
Wire Wire Line
	4450 2150 4550 2150
Connection ~ 4550 2150
Wire Wire Line
	4550 2150 4850 2150
Connection ~ 4850 2150
Wire Wire Line
	4850 2150 5150 2150
Wire Wire Line
	5150 2350 4850 2350
Connection ~ 3950 2350
Connection ~ 4550 2350
Wire Wire Line
	4550 2350 3950 2350
Connection ~ 4850 2350
Wire Wire Line
	4850 2350 4550 2350
Wire Wire Line
	4450 2150 4450 2050
Connection ~ 4450 2150
$Comp
L power:+3.3V #PWR?
U 1 1 5DA5AA2D
P 4450 2050
F 0 "#PWR?" H 4450 1900 50  0001 C CNN
F 1 "+3.3V" V 4465 2178 50  0000 L CNN
F 2 "" H 4450 2050 50  0001 C CNN
F 3 "" H 4450 2050 50  0001 C CNN
	1    4450 2050
	0    1    1    0   
$EndComp
$Comp
L Device:R_Small R?
U 1 1 5DA5AA34
P 5050 4000
F 0 "R?" H 5109 4046 50  0000 L CNN
F 1 "6.49K 1%" H 5109 3955 50  0000 L CNN
F 2 "Resistor_SMD:R_0805_2012Metric" H 5050 4000 50  0001 C CNN
F 3 "~" H 5050 4000 50  0001 C CNN
F 4 "RMCF0805FT6K49" H -1900 -5800 50  0001 C CNN "manf#"
	1    5050 4000
	1    0    0    -1  
$EndComp
$Comp
L power:GND #PWR?
U 1 1 5DA5AA3B
P 5050 4100
F 0 "#PWR?" H 5050 3850 50  0001 C CNN
F 1 "GND" V 5055 3972 50  0000 R CNN
F 2 "" H 5050 4100 50  0001 C CNN
F 3 "" H 5050 4100 50  0001 C CNN
	1    5050 4100
	-1   0    0    -1  
$EndComp
Text Label 3650 2600 2    50   ~ 0
ENET_TXEN
Text Label 3650 2700 2    50   ~ 0
ENET_TXD0
Text Label 3650 2800 2    50   ~ 0
ENET_TXD1
Text Label 3650 3000 2    50   ~ 0
ENET_RXD0
Text Label 3650 3100 2    50   ~ 0
ENET_RXD1
Text Label 3650 3200 2    50   ~ 0
ENET_CRS_DV
$Comp
L Device:C_Small C?
U 1 1 5DA5AA48
P 3100 4000
F 0 "C?" V 3050 4050 50  0000 L CNN
F 1 "0.1u" V 3150 4050 50  0000 L CNN
F 2 "Capacitor_SMD:C_0805_2012Metric" H 3100 4000 50  0001 C CNN
F 3 "~" H 3100 4000 50  0001 C CNN
F 4 "885012207098" H -2050 -5800 50  0001 C CNN "manf#"
	1    3100 4000
	0    1    1    0   
$EndComp
$Comp
L Device:R_Small R?
U 1 1 5DA5AA50
P 3100 3850
F 0 "R?" V 3100 3500 50  0000 C CNN
F 1 "4K7" V 3100 3650 50  0000 C CNN
F 2 "Resistor_SMD:R_0805_2012Metric" H 3100 3850 50  0001 C CNN
F 3 "~" H 3100 3850 50  0001 C CNN
F 4 "RC0805JR-074K7L" H -2050 -5800 50  0001 C CNN "manf#"
	1    3100 3850
	0    1    1    0   
$EndComp
$Comp
L Device:R_Small R?
U 1 1 5DA5AA58
P 3100 3700
F 0 "R?" V 3100 3350 50  0000 C CNN
F 1 "4K7" V 3100 3500 50  0000 C CNN
F 2 "Resistor_SMD:R_0805_2012Metric" H 3100 3700 50  0001 C CNN
F 3 "~" H 3100 3700 50  0001 C CNN
F 4 "RC0805JR-074K7L" H -1900 -5800 50  0001 C CNN "manf#"
	1    3100 3700
	0    1    1    0   
$EndComp
$Comp
L Device:R_Small R?
U 1 1 5DA5AA60
P 3100 3600
F 0 "R?" V 3100 3250 50  0000 C CNN
F 1 "4K7" V 3100 3400 50  0000 C CNN
F 2 "Resistor_SMD:R_0805_2012Metric" H 3100 3600 50  0001 C CNN
F 3 "~" H 3100 3600 50  0001 C CNN
F 4 "RC0805JR-074K7L" H -1900 -5800 50  0001 C CNN "manf#"
	1    3100 3600
	0    1    1    0   
$EndComp
Wire Wire Line
	3600 4000 3600 3850
Wire Wire Line
	3000 3400 3000 3600
Wire Wire Line
	3000 3600 3000 3700
Connection ~ 3000 3600
$Comp
L power:+3.3V #PWR?
U 1 1 5DA5AA6B
P 3000 3400
F 0 "#PWR?" H 3000 3250 50  0001 C CNN
F 1 "+3.3V" V 3015 3528 50  0000 L CNN
F 2 "" H 3000 3400 50  0001 C CNN
F 3 "" H 3000 3400 50  0001 C CNN
	1    3000 3400
	1    0    0    -1  
$EndComp
$Comp
L power:GND #PWR?
U 1 1 5DA5AA71
P 3000 4000
F 0 "#PWR?" H 3000 3750 50  0001 C CNN
F 1 "GND" H 3005 3827 50  0000 C CNN
F 2 "" H 3000 4000 50  0001 C CNN
F 3 "" H 3000 4000 50  0001 C CNN
	1    3000 4000
	-1   0    0    -1  
$EndComp
NoConn ~ 3650 3400
Text Label 3650 3600 2    50   ~ 0
ENET_MDIO
Text Label 3650 3700 2    50   ~ 0
ENET_MDC
Text Label 3650 3300 2    50   ~ 0
ENET_REF_CLK
NoConn ~ 3650 3900
$Comp
L Device:Crystal_Small Y?
U 1 1 5DA5AA7D
P 3250 4500
F 0 "Y?" H 3250 4275 50  0000 C CNN
F 1 "25MHz" H 3250 4366 50  0000 C CNN
F 2 "Crystal:Crystal_SMD_5032-2Pin_5.0x3.2mm" H 3250 4500 50  0001 C CNN
F 3 "~" H 3250 4500 50  0001 C CNN
F 4 "445C33D25M00000" H -2150 -5800 50  0001 C CNN "manf#"
	1    3250 4500
	-1   0    0    1   
$EndComp
$Comp
L Device:C_Small C?
U 1 1 5DA5AA85
P 3100 4600
F 0 "C?" H 3191 4646 50  0000 L CNN
F 1 "22p" H 3191 4555 50  0000 L CNN
F 2 "Capacitor_SMD:C_0805_2012Metric" H 3100 4600 50  0001 C CNN
F 3 "~" H 3100 4600 50  0001 C CNN
F 4 "885012007012" H -2600 -5950 50  0001 C CNN "manf#"
	1    3100 4600
	-1   0    0    -1  
$EndComp
$Comp
L Device:C_Small C?
U 1 1 5DA5AA8D
P 3400 4600
F 0 "C?" H 3308 4646 50  0000 R CNN
F 1 "22p" H 3308 4555 50  0000 R CNN
F 2 "Capacitor_SMD:C_0805_2012Metric" H 3400 4600 50  0001 C CNN
F 3 "~" H 3400 4600 50  0001 C CNN
F 4 "885012007012" H -2300 -5750 50  0001 C CNN "manf#"
	1    3400 4600
	-1   0    0    -1  
$EndComp
$Comp
L power:GND #PWR?
U 1 1 5DA5AA94
P 3250 4700
F 0 "#PWR?" H 3250 4450 50  0001 C CNN
F 1 "GND" H 3255 4527 50  0000 C CNN
F 2 "" H 3250 4700 50  0001 C CNN
F 3 "" H 3250 4700 50  0001 C CNN
	1    3250 4700
	-1   0    0    -1  
$EndComp
Text Label 5050 3100 0    50   ~ 0
TD+
Text Label 5050 3000 0    50   ~ 0
TD-
Text Label 5050 2800 0    50   ~ 0
RD+
Text Label 5050 2700 0    50   ~ 0
RD-
Text Label 6050 3200 2    50   ~ 0
TD+
Text Label 6050 3400 2    50   ~ 0
TD-
Text Label 6050 3500 2    50   ~ 0
RD+
Text Label 6050 3700 2    50   ~ 0
RD-
$Comp
L Device:C_Small C?
U 1 1 5DA5AAA3
P 5750 3300
F 0 "C?" V 5521 3300 50  0000 C CNN
F 1 "0.1u" V 5612 3300 50  0000 C CNN
F 2 "Capacitor_SMD:C_0805_2012Metric" H 5750 3300 50  0001 C CNN
F 3 "~" H 5750 3300 50  0001 C CNN
F 4 "885012207098" H -1900 -5800 50  0001 C CNN "manf#"
	1    5750 3300
	0    -1   1    0   
$EndComp
$Comp
L power:GND #PWR?
U 1 1 5DA5AAAA
P 5650 3450
F 0 "#PWR?" H 5650 3200 50  0001 C CNN
F 1 "GND" V 5655 3322 50  0000 R CNN
F 2 "" H 5650 3450 50  0001 C CNN
F 3 "" H 5650 3450 50  0001 C CNN
	1    5650 3450
	0    1    1    0   
$EndComp
$Comp
L Device:C_Small C?
U 1 1 5DA5AAB1
P 5750 3600
F 0 "C?" V 5887 3600 50  0000 C CNN
F 1 "0.1u" V 5978 3600 50  0000 C CNN
F 2 "Capacitor_SMD:C_0805_2012Metric" H 5750 3600 50  0001 C CNN
F 3 "~" H 5750 3600 50  0001 C CNN
F 4 "885012207098" H -1900 -5800 50  0001 C CNN "manf#"
	1    5750 3600
	0    -1   1    0   
$EndComp
Wire Wire Line
	5850 3600 6050 3600
Wire Wire Line
	6050 3300 5850 3300
$Comp
L power:GND #PWR?
U 1 1 5DA5AABA
P 6950 4400
F 0 "#PWR?" H 6950 4150 50  0001 C CNN
F 1 "GND" V 6827 4363 50  0000 C CNN
F 2 "" H 6950 4400 50  0001 C CNN
F 3 "" H 6950 4400 50  0001 C CNN
	1    6950 4400
	0    -1   -1   0   
$EndComp
$Comp
L power:GND #PWR?
U 1 1 5DA5AAC0
P 7850 4100
F 0 "#PWR?" H 7850 3850 50  0001 C CNN
F 1 "GND" H 7800 3950 50  0000 L CNN
F 2 "" H 7850 4100 50  0001 C CNN
F 3 "" H 7850 4100 50  0001 C CNN
	1    7850 4100
	1    0    0    -1  
$EndComp
$Comp
L Device:R_Small R?
U 1 1 5DA5AAC7
P 5650 4200
F 0 "R?" V 5600 4350 50  0000 C CNN
F 1 "220R" V 5700 4400 50  0000 C CNN
F 2 "Resistor_SMD:R_0805_2012Metric" H 5650 4200 50  0001 C CNN
F 3 "~" H 5650 4200 50  0001 C CNN
F 4 "CRGCQ0805J22R" H -1900 -5800 50  0001 C CNN "manf#"
	1    5650 4200
	0    1    1    0   
$EndComp
Wire Wire Line
	3650 4000 3600 4000
Connection ~ 3600 4000
Wire Wire Line
	3000 3850 3000 3700
Connection ~ 3000 3700
Text Label 5550 4200 2    50   ~ 0
ETH_LED
Text Label 5050 3700 0    50   ~ 0
ETH_LED
Wire Notes Line
	2600 1850 2600 5050
$Comp
L Connector:RJ45_Amphenol_RJMG1BD3B8K1ANR J?
U 1 1 5DA5AAD6
P 6950 3700
F 0 "J?" H 6950 4425 50  0000 C CNN
F 1 "RJ45_Amphenol_RJMG1BD3B8K1ANR" H 6950 4334 50  0000 C CNN
F 2 "Connector_RJ:RJ45_Amphenol_RJMG1BD3B8K1ANR" H 6950 4400 50  0001 C CNN
F 3 "https://www.amphenolcanada.com/ProductSearch/Drawings/AC/RJMG1BD3B8K1ANR.PDF" H 6950 4500 50  0001 C CNN
F 4 "RJMG1BD3B8K1ANR" H -1900 -5800 50  0001 C CNN "manf#"
	1    6950 3700
	1    0    0    -1  
$EndComp
Wire Wire Line
	5650 3300 5650 3450
Connection ~ 5650 3450
Wire Wire Line
	5650 3450 5650 3600
Wire Wire Line
	5750 4200 5900 4200
Wire Wire Line
	5900 4200 5900 4100
Wire Wire Line
	5900 3900 6050 3900
Wire Wire Line
	6050 4100 5900 4100
Connection ~ 5900 4100
Wire Wire Line
	5900 4100 5900 3900
Wire Wire Line
	6050 4000 6000 4000
Wire Wire Line
	6000 4000 6000 4200
Wire Wire Line
	6050 4200 6000 4200
Connection ~ 6000 4200
Wire Wire Line
	6000 4200 6000 4350
$Comp
L power:GND #PWR?
U 1 1 5DA5AAEB
P 6000 4350
F 0 "#PWR?" H 6000 4100 50  0001 C CNN
F 1 "GND" H 6005 4177 50  0000 C CNN
F 2 "" H 6000 4350 50  0001 C CNN
F 3 "" H 6000 4350 50  0001 C CNN
	1    6000 4350
	1    0    0    -1  
$EndComp
Wire Notes Line
	2600 5050 8100 5050
Wire Wire Line
	3200 3600 3650 3600
Wire Wire Line
	3200 3700 3650 3700
Wire Wire Line
	3200 3850 3600 3850
Wire Wire Line
	3200 4000 3600 4000
Wire Wire Line
	3100 4700 3250 4700
Connection ~ 3250 4700
Wire Wire Line
	3250 4700 3400 4700
Wire Wire Line
	3400 4500 3400 4300
Wire Wire Line
	3400 4300 3650 4300
Wire Wire Line
	3650 4200 3100 4200
Wire Wire Line
	3100 4200 3100 4500
Wire Wire Line
	3150 4500 3100 4500
Connection ~ 3100 4500
Wire Wire Line
	3350 4500 3400 4500
Connection ~ 3400 4500
$EndSCHEMATC
